<?xml version="1.0" encoding="UTF-8"?>
<svg id="Layer_2" data-name="Layer 2" xmlns="http://www.w3.org/2000/svg" xmlns:xlink="http://www.w3.org/1999/xlink" viewBox="0 0 802.24 465.21">
  <defs>
    <style>
      .cls-1 {
        fill: url(#isometric_grid);
        opacity: .1;
      }

      .cls-1, .cls-2 {
        stroke-width: 0px;
      }

      .cls-2, .cls-3 {
        fill: none;
      }

      .cls-3 {
        stroke: #000;
        stroke-miterlimit: 10;
      }
    </style>
    <pattern id="isometric_grid" data-name="isometric grid" x="0" y="0" width="207.85" height="120" patternTransform="translate(-4374.64 -4675.56) scale(.39)" patternUnits="userSpaceOnUse" viewBox="0 0 207.85 120">
      <g>
        <rect class="cls-2" width="207.85" height="120"/>
        <g>
          <polygon class="cls-3" points="155.88 90 155.88 150 207.85 180 259.81 150 259.81 90 207.85 60 155.88 90"/>
          <line class="cls-3" x1="207.85" y1="60" x2="207.85" y2="180"/>
          <line class="cls-3" x1="259.81" y1="90" x2="155.88" y2="150"/>
          <line class="cls-3" x1="155.88" y1="90" x2="259.81" y2="150"/>
        </g>
        <polygon class="cls-3" points="51.96 150 51.96 210 103.92 240 155.88 210 155.88 150 103.92 120 51.96 150"/>
        <g>
          <polygon class="cls-3" points="-51.96 90 -51.96 150 0 180 51.96 150 51.96 90 0 60 -51.96 90"/>
          <line class="cls-3" x1="0" y1="60" x2="0" y2="180"/>
          <line class="cls-3" x1="51.96" y1="90" x2="-51.96" y2="150"/>
          <line class="cls-3" x1="-51.96" y1="90" x2="51.96" y2="150"/>
        </g>
        <g>
          <polygon class="cls-3" points="155.88 -30 155.88 30 207.85 60 259.81 30 259.81 -30 207.85 -60 155.88 -30"/>
          <line class="cls-3" x1="207.85" y1="-60" x2="207.85" y2="60"/>
          <line class="cls-3" x1="259.81" y1="-30" x2="155.88" y2="30"/>
          <line class="cls-3" x1="155.88" y1="-30" x2="259.81" y2="30"/>
        </g>
        <g>
          <polygon class="cls-3" points="51.96 30 51.96 90 103.92 120 155.88 90 155.88 30 103.92 0 51.96 30"/>
          <line class="cls-3" x1="103.92" y1="0" x2="103.92" y2="120"/>
          <line class="cls-3" x1="155.88" y1="30" x2="51.96" y2="90"/>
          <line class="cls-3" x1="51.96" y1="30" x2="155.88" y2="90"/>
        </g>
        <g>
          <polygon class="cls-3" points="-51.96 -30 -51.96 30 0 60 51.96 30 51.96 -30 0 -60 -51.96 -30"/>
          <line class="cls-3" x1="0" y1="-60" x2="0" y2="60"/>
          <line class="cls-3" x1="51.96" y1="-30" x2="-51.96" y2="30"/>
          <line class="cls-3" x1="-51.96" y1="-30" x2="51.96" y2="30"/>
        </g>
        <polygon class="cls-3" points="51.96 -90 51.96 -30 103.92 0 155.88 -30 155.88 -90 103.92 -120 51.96 -90"/>
      </g>
    </pattern>
  </defs>
  <g id="Layer_11" data-name="Layer 11">
    <polygon class="cls-1" points="802.24 465.21 2.33 465.21 0 0 799.91 0 802.24 465.21"/>
  </g>
</svg>